,plate,number,M NaCl,Strain,mM PQ
0,20150517 PQ 3,30,,ura3,0.0
1,20150517 PQ 3,88,,ura3,0.083
2,20150517 PQ 3,32,,ura3,0.0
3,20150517 PQ 3,33,,ura3,0.0
4,20150517 PQ 3,31,,ura3,0.0
5,20150517 PQ 3,34,,ura3,0.0
6,20150517 PQ 3,87,,ura3,0.083
7,20150517 PQ 3,91,,ura3,0.083
8,20150517 PQ 3,35,,ura3,0.0
9,20150517 PQ 3,94,,ura3,0.083
10,20150517 PQ 3,89,,ura3,0.083
11,20150517 PQ 3,36,,ura3,0.0
12,20150517 PQ 3,95,,ura3,0.083
13,20150517 PQ 3,96,,ura3,0.083
14,20150517 PQ 3,37,,ura3,0.0
15,20150517 PQ 3,92,,ura3,0.083
16,20150517 PQ 3,97,,ura3,0.083
17,20150517 PQ 3,98,,ura3,0.083
18,20150517 PQ 3,29,,ura3,0.0
19,20150517 PQ 3,28,,ura3,0.0
20,20150517 PQ 3,26,,ura3,0.0
21,20150517 PQ 3,86,,ura3,0.083
22,20150517 PQ 3,93,,ura3,0.083
23,20150517 PQ 3,27,,ura3,0.0
