,plate,number,M NaCl,Strain,mM PQ
0,20150704 PQ 7,154,,ura3,0.333
1,20150704 PQ 7,35,,ura3,0.0
2,20150704 PQ 7,160,,ura3,0.333
3,20150704 PQ 7,159,,ura3,0.333
4,20150704 PQ 7,151,,ura3,0.333
5,20150704 PQ 7,161,,ura3,0.333
6,20150704 PQ 7,28,,ura3,0.0
7,20150704 PQ 7,33,,ura3,0.0
8,20150704 PQ 7,155,,ura3,0.333
9,20150704 PQ 7,34,,ura3,0.0
10,20150704 PQ 7,27,,ura3,0.0
11,20150704 PQ 7,157,,ura3,0.333
12,20150704 PQ 7,158,,ura3,0.333
13,20150704 PQ 7,153,,ura3,0.333
14,20150704 PQ 7,32,,ura3,0.0
15,20150704 PQ 7,37,,ura3,0.0
16,20150704 PQ 7,156,,ura3,0.333
17,20150704 PQ 7,152,,ura3,0.333
18,20150704 PQ 7,150,,ura3,0.333
19,20150704 PQ 7,26,,ura3,0.0
20,20150704 PQ 7,36,,ura3,0.0
21,20150704 PQ 7,31,,ura3,0.0
22,20150704 PQ 7,30,,ura3,0.0
23,20150704 PQ 7,29,,ura3,0.0
