time,0,1,2,3,4,5,6,7,8,9,10,11,12,13,14,15,16,17,18,19,20,21,22,23,24,25,26,27,28,29,30,31,32,33,34,35
2.5,-0.00774182210154,-0.0317872960682,-0.0562403397927,-0.217838153396,-0.181001385215,-0.121622838136,-0.255640186108,-0.0562403397927,0.0534638684218,-0.217838153396,-0.00774182210154,-0.156955911249,-0.0562403397927,-0.0562403397927,-0.0686240642486,0.0733949406239,0.062079627396,-0.255640186108,0.0159094459631,0.0275912510107,0.0009964485277,-0.0534513354947,-0.110034863861,-0.133304643184,-0.0534513354947,0.190967392172,0.290503065723,0.18156869417,0.237063806761,0.237063806761,0.281732856095,-0.0758191485231,0.104089941492,0.032705308255,-0.0645918930999,-0.087134461751
4.0,0.0159094459631,-0.00774182210154,-0.0197144637676,-0.193176099161,-0.168928552915,-0.0985392250232,-0.230329097579,-0.0317872960682,0.0739279709816,-0.193176099161,0.0275912510107,-0.14508181096,-0.0197144637676,-0.0317872960682,-0.0317872960682,0.106817942161,0.0846221960471,-0.230329097579,0.0506748641238,0.0506748641238,0.032705308255,-0.0205367130219,-0.0985392250232,-0.110034863861,-0.0423961469857,0.237063806761,0.307885143951,0.218801600368,0.264030854361,0.264030854361,0.299220282824,-0.0534513354947,0.133634217106,0.0431219242004,-0.0314250291647,-0.0645918930999
5.5,0.039179225286,0.0159094459631,-0.0197144637676,-0.181001385215,-0.14508181096,-0.0758191485231,-0.217838153396,-0.0197144637676,0.104089941492,-0.181001385215,0.0506748641238,-0.121622838136,-0.00774182210154,-0.0197144637676,-0.0197144637676,0.106817942161,0.0957627536523,-0.20545442894,0.062079627396,0.062079627396,0.0739279709816,0.0009964485277,-0.0758191485231,-0.0985392250232,-0.0205367130219,0.264030854361,0.333571787615,0.237063806761,0.290503065723,0.299220282824,0.316498274256,-0.0205367130219,0.162585590802,0.0739279709816,-0.0205367130219,-0.0423961469857
7.0,0.0506748641238,0.039179225286,0.0159094459631,-0.156955911249,-0.121622838136,-0.0645918930999,-0.193176099161,0.00413227818675,0.123853196313,-0.156955911249,0.062079627396,-0.0985392250232,0.0159094459631,0.00413227818675,-0.00774182210154,0.117789059982,0.117789059982,-0.181001385215,0.0733949406239,0.0733949406239,0.104089941492,0.0116436927272,-0.0534513354947,-0.0758191485231,0.0009964485277,0.299220282824,0.350445606179,0.255097729591,0.316498274256,0.325060287759,0.342033366363,-0.00972995806536,0.190967392172,0.104089941492,0.0009964485277,-0.00972995806536
8.5,0.0733949406239,0.062079627396,0.039179225286,-0.133304643184,-0.087134461751,-0.0314250291647,-0.168928552915,0.0275912510107,0.17210836492,-0.133304643184,0.0846221960471,-0.0645918930999,0.039179225286,0.0275912510107,0.0159094459631,0.150210537675,0.139484131082,-0.168928552915,0.0957627536523,0.106817942161,0.17210836492,0.0534638684218,-0.0314250291647,-0.0423961469857,0.032705308255,0.333571787615,0.383612470114,0.307885143951,0.350445606179,0.367124347326,0.383612470114,0.032705308255,0.218801600368,0.133634217106,0.0431219242004,0.032705308255
10.0,0.0733949406239,0.0733949406239,0.039179225286,-0.110034863861,-0.087134461751,-0.0423961469857,-0.14508181096,0.0275912510107,0.123853196313,-0.110034863861,0.0957627536523,-0.0645918930999,0.0506748641238,0.0275912510107,0.039179225286,0.128677376125,0.117789059982,-0.133304643184,0.0846221960471,0.0957627536523,0.114005410357,0.0222129344374,-0.0314250291647,-0.0423961469857,0.0116436927272,0.272909005708,0.333571787615,0.255097729591,0.307885143951,0.325060287759,0.350445606179,0.0116436927272,0.18156869417,0.123853196313,0.0534638684218,0.0431219242004
11.5,0.128677376125,0.139484131082,0.106817942161,-0.0645918930999,-0.0314250291647,0.032705308255,-0.0985392250232,0.0733949406239,0.246108946364,-0.0645918930999,0.160857781874,-0.00972995806536,0.0846221960471,0.0846221960471,0.062079627396,0.212946293023,0.192336013347,-0.087134461751,0.150210537675,0.160857781874,0.255097729591,0.123853196313,0.0222129344374,0.0116436927272,0.0941058529192,0.399914282443,0.439880689761,0.350445606179,0.399914282443,0.42402673856,0.439880689761,0.0941058529192,0.272909005708,0.209583070339,0.123853196313,0.104089941492
13.0,0.150210537675,0.160857781874,0.139484131082,-0.0423961469857,0.0009964485277,0.0431219242004,-0.0758191485231,0.0957627536523,0.281732856095,-0.0423961469857,0.181919397402,0.0222129344374,0.0957627536523,0.0957627536523,0.0733949406239,0.223142060129,0.202677957569,-0.0645918930999,0.171427023584,0.181919397402,0.290503065723,0.143349371939,0.0534638684218,0.0431219242004,0.114005410357,0.42402673856,0.455562311993,0.367124347326,0.416033947807,0.447742807534,0.455562311993,0.104089941492,0.299220282824,0.237063806761,0.152999541973,0.133634217106
14.5,0.160857781874,0.171427023584,0.150210537675,0.0009964485277,0.0116436927272,0.032705308255,-0.0314250291647,0.0957627536523,0.237063806761,-0.00972995806536,0.202677957569,0.032705308255,0.117789059982,0.106817942161,0.0846221960471,0.192336013347,0.181919397402,-0.0314250291647,0.171427023584,0.171427023584,0.237063806761,0.114005410357,0.0739279709816,0.0637322038757,0.0840521882553,0.375391963309,0.407996628741,0.325060287759,0.375391963309,0.407996628741,0.42402673856,0.0840521882553,0.272909005708,0.237063806761,0.162585590802,0.152999541973
16.0,0.202677957569,0.223142060129,0.192336013347,0.0431219242004,0.0637322038757,0.0941058529192,0.0222129344374,0.128677376125,0.367124347326,0.032705308255,0.253304030639,0.0941058529192,0.139484131082,0.139484131082,0.106817942161,0.263219499504,0.243319942066,0.0222129344374,0.223142060129,0.223142060129,0.383612470114,0.218801600368,0.114005410357,0.104089941492,0.17210836492,0.486423275698,0.501609679513,0.416033947807,0.463339662585,0.509143352198,0.516637888745,0.162585590802,0.367124347326,0.333571787615,0.237063806761,0.209583070339
17.5,0.212946293023,0.253304030639,0.233266277402,0.0941058529192,0.0840521882553,0.0941058529192,0.0739279709816,0.150210537675,0.316498274256,0.0534638684218,0.282848306253,0.0941058529192,0.160857781874,0.160857781874,0.139484131082,0.243319942066,0.223142060129,0.0637322038757,0.223142060129,0.233266277402,0.325060287759,0.18156869417,0.143349371939,0.143349371939,0.143349371939,0.431975491676,0.447742807534,0.375391963309,0.407996628741,0.471075311365,0.471075311365,0.143349371939,0.333571787615,0.333571787615,0.255097729591,0.237063806761
19.0,0.243319942066,0.30221363112,0.27306728546,0.162585590802,0.133634217106,0.133634217106,0.133634217106,0.181919397402,0.358809079114,0.104089941492,0.330782783317,0.143349371939,0.202677957569,0.181919397402,0.160857781874,0.282848306253,0.253304030639,0.123853196313,0.253304030639,0.263219499504,0.399914282443,0.227961599654,0.190967392172,0.18156869417,0.190967392172,0.478769703155,0.478769703155,0.407996628741,0.447742807534,0.509143352198,0.509143352198,0.190967392172,0.375391963309,0.39178640156,0.325060287759,0.281732856095
20.5,0.311799679949,0.358797159486,0.340181481319,0.237063806761,0.200305256751,0.209583070339,0.200305256751,0.233266277402,0.494036459808,0.162585590802,0.404311818738,0.218801600368,0.243319942066,0.223142060129,0.192336013347,0.358797159486,0.321322454067,0.200305256751,0.330782783317,0.330782783317,0.516637888745,0.350445606179,0.281732856095,0.255097729591,0.281732856095,0.61068137866,0.603660950982,0.531511165226,0.575232542656,0.631539983558,0.624620569618,0.281732856095,0.471075311365,0.509143352198,0.431975491676,0.358809079114
22.0,0.340181481319,0.404311818738,0.386277895908,0.316498274256,0.237063806761,0.218801600368,0.290503065723,0.263219499504,0.471075311365,0.209583070339,0.43971715487,0.246108946364,0.27306728546,0.253304030639,0.233266277402,0.349519345898,0.330782783317,0.281732856095,0.358797159486,0.349519345898,0.463339662585,0.316498274256,0.299220282824,0.299220282824,0.281732856095,0.575232542656,0.560805472021,0.478769703155,0.524093693664,0.589516768662,0.582392334229,0.272909005708,0.455562311993,0.538890695592,0.463339662585,0.399914282443
23.5,0.395323035511,0.482785876762,0.465712363403,0.42402673856,0.307885143951,0.264030854361,0.407996628741,0.311799679949,0.524093693664,0.281732856095,0.524606052456,0.307885143951,0.321322454067,0.30221363112,0.27306728546,0.386277895908,0.358797159486,0.383612470114,0.404311818738,0.404311818738,0.501609679513,0.358809079114,0.463339662585,0.375391963309,0.316498274256,0.638426369143,0.603660950982,0.531511165226,0.582392334229,0.638426369143,0.631539983558,0.316498274256,0.509143352198,0.617667808976,0.560805472021,0.471075311365
25.0,0.465712363403,0.557210717888,0.54912837159,0.538890695592,0.39178640156,0.333571787615,0.524093693664,0.377175688801,0.582392334229,0.367124347326,0.612553751732,0.399914282443,0.395323035511,0.358797159486,0.330782783317,0.448434371971,0.413244943508,0.494036459808,0.474274376906,0.474274376906,0.582392334229,0.447742807534,0.546232670933,0.486423275698,0.39178640156,0.698967911078,0.658890471703,0.582392334229,0.617667808976,0.698967911078,0.67906835364,0.39178640156,0.560805472021,0.718596717827,0.645280040184,0.546232670933
26.5,0.532826559261,0.643250548955,0.658357441345,0.65210130604,0.486423275698,0.407996628741,0.631539983558,0.430946945242,0.665647837878,0.463339662585,0.69544676008,0.494036459808,0.43971715487,0.413244943508,0.386277895908,0.49124745551,0.465712363403,0.61068137866,0.54912837159,0.541000490707,0.645280040184,0.531511165226,0.712083410868,0.596606193448,0.478769703155,0.769670902421,0.712083410868,0.65210130604,0.67906835364,0.769670902421,0.757070865642,0.471075311365,0.638426369143,0.825047659458,0.763384639574,0.645280040184
28.0,0.627983792302,0.731606423376,0.724446631803,0.757070865642,0.582392334229,0.486423275698,0.731535773534,0.499659695326,0.725080751397,0.546232670933,0.773834658765,0.575232542656,0.516338436473,0.474274376906,0.448434371971,0.557210717888,0.532826559261,0.718596717827,0.635637364845,0.627983792302,0.692365176254,0.61068137866,0.825047659458,0.698967911078,0.538890695592,0.860818790479,0.788366996131,0.712083410868,0.737962042694,0.837070187707,0.812924100375,0.538890695592,0.712083410868,0.940989139163,0.872548083062,0.737962042694
29.5,0.702751560703,0.821587790213,0.794494129331,0.843044088751,0.692365176254,0.575232542656,0.818998614785,0.573240827707,0.818998614785,0.665647837878,0.848182000225,0.685732083921,0.596956896681,0.565248036954,0.508023168261,0.612553751732,0.60477640114,0.800697798042,0.724446631803,0.717251130399,0.750729338768,0.692365176254,0.884182783545,0.800697798042,0.624620569618,0.9354081069,0.866695356816,0.800697798042,0.818998614785,0.918534288336,0.907174426171,0.631539983558,0.800697798042,1.03792301753,0.979463286978,0.837070187707
31.0,0.801315395187,0.893573903039,0.861297500015,0.940989139163,0.818998614785,0.672373701066,0.924180851477,0.658357441345,0.912865538249,0.782161846604,0.931375935751,0.812924100375,0.665851977892,0.643250548955,0.589094778908,0.680725254373,0.680725254373,0.889965136139,0.814861927025,0.814861927025,0.837070187707,0.79454557106,1.0169379924,0.912865538249,0.725080751397,1.04830216331,0.952086848047,0.889965136139,0.901460774977,1.02221293444,1.00632989283,0.731535773534,0.901460774977,1.11400541036,1.06373220388,0.9354081069
32.5,0.912598728721,0.986284276854,0.931375935751,1.03270530826,0.912865538249,0.775929892893,1.02746865989,0.745820282595,0.974029400927,0.866695356816,1.01590944596,0.912865538249,0.752875040129,0.717251130399,0.688104784739,0.752875040129,0.766881898123,0.979463286978,0.906284954789,0.906284954789,0.895724405428,0.889965136139,1.17210836492,1.00099644853,0.825047659458,1.11400541036,1.0431219242,0.990270041935,1.00099644853,1.09910653398,1.08405218826,0.825047659458,0.990270041935,1.18627569685,1.12385319631,1.00632989283
34.0,1.00413227819,1.07339494062,1.03339687269,1.13363421711,1.03270530826,0.918534288336,1.14334937194,0.828282442787,1.14818252567,0.963099840769,1.08462219605,1.02746865989,0.834946173068,0.794494129331,0.766881898123,0.867810806974,0.880749862681,1.03270530826,0.992258177898,1.00413227819,1.07392797098,1.04830216331,1.29486825828,1.12385319631,0.984876783164,1.26403085436,1.19096739217,1.13363421711,1.14334937194,1.26403085436,1.23251988162,0.968574970835,1.12875199573,1.27290900571,1.22338886986,1.12875199573
35.5,1.09576275365,1.15554398198,1.13948413108,1.19564387938,1.10408994149,1.01164369273,1.22796159965,0.899943427915,1.19096739217,1.0169379924,1.15021053767,1.09410585292,0.899943427915,0.848182000225,0.841579265401,0.956037989986,0.968212703932,1.08405218826,1.08462219605,1.08462219605,1.12875199573,1.12875199573,1.37126407769,1.22338886986,1.06373220388,1.31219813682,1.26403085436,1.20958307034,1.21880160037,1.30355921855,1.28612462521,1.06373220388,1.18627569685,1.31219813682,1.25957120617,1.15780052824
37.0,1.14485730318,1.20782126084,1.21805318346,1.25509772959,1.14818252567,1.02746865989,1.23706380676,0.974261748605,1.19096739217,1.06883909431,1.2332662774,1.10905619439,0.980285536232,0.931375935751,0.918884991568,1.01590944596,1.02759125101,1.10408994149,1.13948413108,1.15021053767,1.14334937194,1.09910653398,1.38770522475,1.24159346524,1.07899896053,1.35880907911,1.33357178761,1.26847675939,1.26847675939,1.34624561765,1.33357178761,1.07392797098,1.24610894636,1.35880907911,1.30355921855,1.20495162161
38.5,1.19751625245,1.24832062312,1.29739661482,1.32506028776,1.18156869417,1.12385319631,1.27290900571,1.03917922529,1.22796159965,1.10905619439,1.29739661482,1.15780052824,1.03917922529,0.986284276854,0.980285536232,1.03917922529,1.09020322831,1.14818252567,1.21294629302,1.21805318346,1.11400541036,1.17210836492,1.56803704125,1.28612462521,1.12385319631,1.36712434733,1.36297270406,1.29486825828,1.30788514395,1.37126407769,1.35880907911,1.13363421711,1.27290900571,1.36297270406,1.31219813682,1.20958307034
40.0,1.2632194995,1.3165689241,1.36341378756,1.36712434733,1.20958307034,1.13849997228,1.27732767697,1.09020322831,1.2506103386,1.13849997228,1.32606037307,1.17684628393,1.10130093719,1.05638851532,1.02176217221,1.07901948982,1.15021053767,1.18627569685,1.28284830625,1.28284830625,1.14818252567,1.17210836492,1.62808442492,1.30355921855,1.13363421711,1.40396111551,1.37950807178,1.31649827426,1.3378087805,1.37950807178,1.38361247011,1.14334937194,1.31649827426,1.37539196331,1.32932231461,1.24159346524
41.5,1.32606037307,1.32606037307,1.42654176612,1.37126407769,1.30355921855,1.26847675939,1.35463340314,1.14485730318,1.30788514395,1.21419969841,1.33548978599,1.27290900571,1.15554398198,1.11778905998,1.08462219605,1.17142702358,1.22314206013,1.20958307034,1.30701461738,1.31179967995,1.23706380676,1.26847675939,1.66901468898,1.32506028776,1.24610894636,1.44381710432,1.45556231199,1.38770522475,1.38770522475,1.43988068976,1.4120208853,1.25509772959,1.34203336636,1.41603394781,1.35463340314,1.2506103386
43.0,1.38173397076,1.35879715949,1.39982442775,1.38361247011,1.31219813682,1.27732767697,1.29050306572,1.18713710667,1.32078563266,1.19564387938,1.38627789591,1.27732767697,1.21805318346,1.19233601335,1.13948413108,1.22314206013,1.29256346109,1.23706380676,1.35416571075,1.36801568952,1.2506103386,1.26847675939,1.73153577353,1.38361247011,1.24610894636,1.46333966258,1.5091433522,1.42003587836,1.42800658947,1.46721267173,1.44774280753,1.26847675939,1.36297270406,1.42003587836,1.36712434733,1.26847675939
44.5,1.42654176612,1.38173397076,1.39080755439,1.28612462521,1.31649827426,1.31219813682,1.27290900571,1.22821304968,1.36712434733,1.19564387938,1.48702286965,1.29486825828,1.24832062312,1.22821304968,1.18713710667,1.26815179505,1.33548978599,1.24610894636,1.39080755439,1.39080755439,1.25509772959,1.31649827426,1.69236517625,1.38361247011,1.28173285609,1.4864232757,1.5053814334,1.43197549168,1.45165785754,1.47492763686,1.46333966258,1.29050306572,1.39991428244,1.42800658947,1.38361247011,1.28173285609
46.0,1.49124745551,1.43094694524,1.43971715487,1.37950807178,1.34624561765,1.35463340314,1.3378087805,1.25827028353,1.4120208853,1.27732767697,1.44408234743,1.31649827426,1.28284830625,1.26815179505,1.21294629302,1.33078278332,1.39982442775,1.28173285609,1.42654176612,1.43094694524,1.32932231461,1.36712434733,1.67906835364,1.50160967951,1.31649827426,1.5091433522,1.56080547202,1.5091433522,1.50160967951,1.52037060762,1.5091433522,1.33357178761,1.43197549168,1.46333966258,1.41603394781,1.30355921855
47.5,1.64325054895,1.51633843647,1.56924996751,1.39585606587,1.34624561765,1.3378087805,1.43197549168,1.32132245407,1.38770522475,1.25509772959,1.53282655926,1.30355921855,1.36341378756,1.30701461738,1.25330403064,1.37260295901,1.4570992331,1.29486825828,1.46141222597,1.46999972181,1.30788514395,1.37539196331,1.71859671783,1.57881688,1.30788514395,1.51289548706,1.57163927793,1.4864232757,1.50160967951,1.51663788874,1.49782803897,1.3378087805,1.42402673856,1.46721267173,1.39178640156,1.30788514395
49.0,1.65835744135,1.58909477891,1.65082376866,1.4120208853,1.35463340314,1.38770522475,1.43197549168,1.38627789591,1.42402673856,1.25957120617,1.54912837159,1.32932231461,1.39982442775,1.37260295901,1.29256346109,1.40878529532,1.4954597068,1.29922028282,1.50384749229,1.5121867932,1.37539196331,1.39178640156,1.6622731111,1.58951676866,1.3378087805,1.55717604862,1.58951676866,1.50160967951,1.51289548706,1.52780719646,1.51289548706,1.35880907911,1.43593350524,1.4594562281,1.40396111551,1.29922028282
50.5,1.69910378369,1.58514759439,1.67702128561,1.42402673856,1.37539196331,1.40799662874,1.44381710432,1.41769084854,1.46333966258,1.28612462521,1.58909477891,1.35044560618,1.46141222597,1.39532303551,1.32606037307,1.43094694524,1.5369193139,1.32506028776,1.5369193139,1.52460605246,1.37950807178,1.40396111551,1.63842636914,1.54988969454,1.34203336636,1.53151116523,1.60366095098,1.5091433522,1.51289548706,1.53889069559,1.51663788874,1.37539196331,1.43988068976,1.47107531136,1.39585606587,1.31649827426
52.0,1.73873085781,1.60867031724,1.71363987685,1.43197549168,1.35044560618,1.37126407769,1.44381710432,1.4570992331,1.46333966258,1.27290900571,1.60867031724,1.33357178761,1.48702286965,1.43094694524,1.34485796853,1.4570992331,1.60477640114,1.35044560618,1.54912837159,1.55721071789,1.35044560618,1.37539196331,1.66564783788,1.4864232757,1.34203336636,1.54256635374,1.60366095098,1.52037060762,1.52780719646,1.53889069559,1.5053814334,1.37539196331,1.44774280753,1.47876970315,1.43197549168,1.31649827426
53.5,1.73873085781,1.64325054895,1.7244466318,1.44381710432,1.37539196331,1.38770522475,1.42800658947,1.49965969533,1.4864232757,1.28612462521,1.65082376866,1.36297270406,1.4954597068,1.46999972181,1.3771756888,1.49124745551,1.63563736484,1.37126407769,1.57324082771,1.58118958082,1.39178640156,1.40799662874,1.55717604862,1.49023488965,1.37126407769,1.57523254266,1.62462056962,1.53520564878,1.54623267093,1.5644257877,1.53520564878,1.39991428244,1.47492763686,1.4864232757,1.43988068976,1.32932231461
55.0,1.78764045829,1.68441973793,1.76688189812,1.47492763686,1.36297270406,1.38361247011,1.4594562281,1.55317520465,1.48260156475,1.30355921855,1.69178044288,1.36297270406,1.55721071789,1.52047816683,1.40431181874,1.51633843647,1.71001956117,1.39991428244,1.61642676088,1.62028940051,1.4120208853,1.44774280753,1.53520564878,1.49782803897,1.39178640156,1.57163927793,1.64185727454,1.55353747156,1.55353747156,1.56803704125,1.54256635374,1.40396111551,1.48260156475,1.50160967951,1.43988068976,1.33357178761
56.5,1.77036246686,1.7027515607,1.75638952431,1.49782803897,1.39178640156,1.40396111551,1.48260156475,1.58118958082,1.4594562281,1.32506028776,1.72085336708,1.37950807178,1.57722067862,1.54100049071,1.43533871436,1.52460605246,1.71001956117,1.42003587836,1.63563736484,1.64325054895,1.40396111551,1.40396111551,1.53151116523,1.5091433522,1.38361247011,1.57163927793,1.63498728518,1.56803704125,1.57163927793,1.58239233423,1.56080547202,1.42003587836,1.49403645981,1.53520564878,1.47492763686,1.36297270406
58.0,1.81486192703,1.73873085781,1.80810456085,1.52037060762,1.39585606587,1.4120208853,1.52037060762,1.62414172601,1.49403645981,1.35463340314,1.74935197357,1.38770522475,1.62414172601,1.60087194668,1.46999972181,1.55317520465,1.77383465876,1.45165785754,1.67702128561,1.68441973793,1.4120208853,1.42003587836,1.55353747156,1.53151116523,1.39991428244,1.59660619345,1.62808442492,1.56080547202,1.57163927793,1.60366095098,1.57523254266,1.43197549168,1.5053814334,1.54988969454,1.49782803897,1.37126407769
59.5,1.86781080697,1.77383465876,1.84818200023,1.53889069559,1.4120208853,1.40799662874,1.54256635374,1.67702128561,1.49403645981,1.37950807178,1.75287504013,1.4120208853,1.69544676008,1.67702128561,1.48702286965,1.54100049071,1.81822877812,1.46333966258,1.7027515607,1.7027515607,1.41603394781,1.46333966258,1.59660619345,1.53520564878,1.40396111551,1.62114837771,1.64528004018,1.55717604862,1.56803704125,1.58239233423,1.58951676866,1.44774280753,1.52409369366,1.57523254266,1.5053814334,1.34624561765
61.0,1.87752596181,1.75287504013,1.84488441012,1.57163927793,1.43593350524,1.45556231199,1.5644257877,1.68441973793,1.54256635374,1.37950807178,1.75287504013,1.43197549168,1.7027515607,1.68072525437,1.50802316826,1.58118958082,1.85475465415,1.51289548706,1.73160642338,1.72803096915,1.47107531136,1.50160967951,1.57163927793,1.56803704125,1.45165785754,1.62808442492,1.66564783788,1.59660619345,1.61068137866,1.6554998825,1.62462056962,1.48260156475,1.54256635374,1.61068137866,1.54623267093,1.39991428244
62.5,1.91259872872,1.76339291204,1.85147207016,1.58951676866,1.46721267173,1.49403645981,1.58595894925,1.70639013777,1.58951676866,1.39178640156,1.7807540727,1.45165785754,1.70639013777,1.70639013777,1.50802316826,1.62414172601,1.89037856388,1.56080547202,1.75989546781,1.77729851407,1.52409369366,1.49023488965,1.57881688,1.59660619345,1.48260156475,1.68573208392,1.70881569703,1.6486947046,1.6588904717,1.69567032098,1.6588904717,1.51289548706,1.58595894925,1.64185727454,1.58239233423,1.41603394781
64.0,1.93758108528,1.75638952431,1.85475465415,1.60013788442,1.49403645981,1.51289548706,1.60717543516,1.7172511304,1.63842636914,1.4120208853,1.7807540727,1.47876970315,1.71363987685,1.7027515607,1.53282655926,1.63944897879,1.89994342791,1.58595894925,1.77729851407,1.76688189812,1.53151116523,1.51289548706,1.58595894925,1.62114837771,1.47492763686,1.71859671783,1.7250807514,1.66564783788,1.67572491057,1.71859671783,1.6824040662,1.51289548706,1.60013788442,1.67237370107,1.60717543516,1.42402673856
65.5,1.96213818952,1.77036246686,1.86129750002,1.64185727454,1.53889069559,1.50160967951,1.62808442492,1.7244466318,1.63842636914,1.45556231199,1.7807540727,1.52409369366,1.74227992489,1.7351730384,1.56524803695,1.65082376866,1.94683905314,1.62114837771,1.81822877812,1.82493899971,1.56080547202,1.5644257877,1.61068137866,1.64528004018,1.52037060762,1.73475248622,1.74754809152,1.68905244221,1.69236517625,1.74754809152,1.705540565,1.55717604862,1.63153998356,1.69896791108,1.62808442492,1.4120208853
67.0,1.95909131396,1.77383465876,1.85802978618,1.6588904717,1.52780719646,1.54623267093,1.64185727454,1.74935197357,1.6622731111,1.48260156475,1.77729851407,1.53889069559,1.7244466318,1.73160642338,1.55721071789,1.66210957621,1.94375966021,1.6588904717,1.82828244279,1.83494617307,1.54256635374,1.59306583574,1.60013788442,1.65210130604,1.57523254266,1.75707086564,1.77904923474,1.70881569703,1.71534374003,1.77592989289,1.71534374003,1.58595894925,1.6554998825,1.73153577353,1.6588904717,1.42003587836
68.5,1.97124039663,1.78420137432,1.83826653136,1.66564783788,1.54256635374,1.54988969454,1.65210130604,1.73873085781,1.68905244221,1.55717604862,1.7807540727,1.60717543516,1.7351730384,1.73160642338,1.56924996751,1.65459552255,1.94067368033,1.69567032098,1.83826653136,1.84488441012,1.52037060762,1.56803704125,1.63498728518,1.66901468898,1.60013788442,1.80987722482,1.83407393525,1.74435981389,1.74116447473,1.80987722482,1.7250807514,1.57163927793,1.70881569703,1.82504765946,1.70225798101,1.39178640156
70.0,1.97727678636,1.79449412933,1.82493899971,1.66901468898,1.58951676866,1.57163927793,1.66564783788,1.72085336708,1.70225798101,1.56080547202,1.76688189812,1.61766780898,1.7458202826,1.72085336708,1.56123497445,1.62414172601,1.92201788105,1.73475248622,1.83161815535,1.84488441012,1.54256635374,1.6486947046,1.6824040662,1.69236517625,1.59660619345,1.7821618466,1.80069779804,1.74116447473,1.72831187266,1.84006023031,1.7821618466,1.58951676866,1.66901468898,1.76967090242,1.68905244221,1.38770522475
71.5,1.98328802439,1.77729851407,1.85802978618,1.69236517625,1.62114837771,1.62114837771,1.6824040662,1.71363987685,1.74435981389,1.58239233423,1.74935197357,1.63153998356,1.76339291204,1.73873085781,1.57324082771,1.67702128561,1.94991188719,1.78526775747,1.8415792654,1.86129750002,1.53151116523,1.6588904717,1.6486947046,1.69896791108,1.62808442492,1.83407393525,1.85491818904,1.79454557106,1.79454557106,1.89859544128,1.85195881356,1.64528004018,1.76023120653,1.85491818904,1.75707086564,1.42402673856
