time,0,1,2,3,4,5,6,7,8,9,10,11,12,13,14,15,16,17,18,19,20,21,22,23
2.5,0.0521290878967,-0.0631057062917,-0.0753840360701,-0.00979866124651,-0.0482728090611,-0.0150114180906,0.0766190573749,0.0654784997697,0.0200355290086,0.0654784997697,-0.0268855183789,-0.0631057062917,-0.0150114180906,-0.0353337533536,-0.0353337533536,0.0521290878967,0.00280137553313,0.0152923197163,0.162775701125,-0.0353337533536,-0.0268855183789,-0.0613289618866,-0.0482728090611,0.00280137553313
4.0,0.0521290878967,-0.0631057062917,-0.0753840360701,0.00280137553313,-0.0225097129961,-0.0150114180906,0.0654784997697,0.0654784997697,0.0200355290086,0.0429359311186,-0.038858160045,-0.0631057062917,-0.0268855183789,0.00280137553313,-0.0225097129961,0.0642019201973,0.0276760441722,0.0399543739506,0.109533679848,-0.0225097129961,-0.038858160045,-0.0353337533536,-0.0353337533536,0.0276760441722
5.5,0.0880486621516,-0.0268855183789,-0.038858160045,0.0399543739506,0.00280137553313,0.0200355290086,0.0766190573749,0.0876742458839,0.0542512443465,0.0986453637049,0.00844755473336,-0.0268855183789,0.0315311678464,0.0399543739506,0.0152923197163,0.099825829928,0.0642019201973,0.0761745618633,0.141714085597,0.0152923197163,0.0200355290086,-0.00979866124651,0.0152923197163,0.0521290878967
7.0,0.157311324589,0.00844755473336,0.00844755473336,0.099825829928,0.0399543739506,0.0766190573749,0.162775701125,0.17319231707,0.162775701125,0.193802596745,0.0876742458839,0.0429359311186,0.0986453637049,0.0880486621516,0.0521290878967,0.179679137617,0.123095609251,0.145996011361,0.273419764809,0.0521290878967,0.0766190573749,0.0399543739506,0.0642019201973,0.099825829928
8.5,0.201705443947,0.0429359311186,0.0429359311186,0.168538580012,0.099825829928,0.131066841397,0.224176245789,0.224176245789,0.214122581125,0.253923589183,0.131066841397,0.0876742458839,0.131066841397,0.157311324589,0.111507634976,0.23412692164,0.190734326126,0.201705443947,0.321037785041,0.099825829928,0.120340434804,0.0880486621516,0.134591248089,0.145996011361
10.0,0.265835781367,0.109533679848,0.0876742458839,0.23412692164,0.168538580012,0.17319231707,0.30217875779,0.273419764809,0.263704609975,0.311639087039,0.17319231707,0.120340434804,0.162775701125,0.244774165839,0.168538580012,0.307058444093,0.265835781367,0.276252397312,0.385168122461,0.157311324589,0.183534261291,0.145996011361,0.201705443947,0.201705443947
11.5,0.337220414604,0.162775701125,0.17319231707,0.347135883469,0.244774165839,0.273419764809,0.321037785041,0.330375649621,0.385168122461,0.437955536821,0.273419764809,0.224176245789,0.273419764809,0.327236326031,0.255343407549,0.433435729863,0.347135883469,0.366764690218,0.455130680629,0.23412692164,0.283069934842,0.223400515047,0.307058444093,0.276252397312
13.0,0.442713543451,0.234160334361,0.214122581125,0.461092072766,0.347135883469,0.358031992524,0.437955536821,0.420573458592,0.429290675693,0.497194740195,0.339653463209,0.263704609975,0.311639087039,0.433435729863,0.366764690218,0.541015617063,0.442713543451,0.45193207348,0.546104340676,0.347135883469,0.348871993238,0.337220414604,0.405238838032,0.376479845051
14.5,0.50603947882,0.253923589183,0.263704609975,0.583576079291,0.45193207348,0.463642180484,0.402979398578,0.429290675693,0.505462356179,0.569951082631,0.446568667125,0.30217875779,0.420573458592,0.532350755936,0.461092072766,0.665105964787,0.549628747368,0.541015617063,0.505462356179,0.461092072766,0.429290675693,0.424097865284,0.497161327473,0.470194279873
16.0,0.575163839475,0.283069934842,0.283069934842,0.665105964787,0.514863329207,0.437955536821,0.402979398578,0.394101247231,0.480515999049,0.513682862984,0.402979398578,0.321037785041,0.411803248965,0.624916874672,0.523633538835,0.757224166776,0.616742943226,0.608522436421,0.472103759232,0.541015617063,0.472103759232,0.497161327473,0.591939552225,0.532350755936
17.5,0.680873280646,0.330375649621,0.330375649621,0.764641638338,0.600254820437,0.505462356179,0.505462356179,0.488879471983,0.529984675313,0.616493668568,0.497194740195,0.394101247231,0.446568667125,0.72716693292,0.608522436421,0.85775104273,0.74227382531,0.749768361857,0.585632704863,0.608522436421,0.497194740195,0.583576079291,0.673011162873,0.616742943226
19.0,0.779363144045,0.348871993238,0.376179339234,0.850798282088,0.711900176266,0.569951082631,0.455130680629,0.505462356179,0.608840096024,0.698107434121,0.562045884545,0.446568667125,0.538067021611,0.850798282088,0.72716693292,0.93209838419,0.871556842255,0.86467045667,0.562045884545,0.74227382531,0.55409713143,0.688692785105,0.801167514363,0.72716693292
20.5,0.951727190939,0.437955536821,0.455130680629,0.977490287004,0.86467045667,0.601145704234,0.616493668568,0.624106852677,0.668961088462,0.754690962488,0.616493668568,0.505462356179,0.585632704863,0.977490287004,0.86467045667,1.03995437395,0.996515112686,1.009060366,0.754690962488,0.885231779152,0.624106852677,0.836791424094,0.93209838419,0.871556842255
22.0,1.0521290879,0.472103759232,0.538067021611,1.07617456186,0.964666246646,0.69087586489,0.593410055455,0.705302935525,0.795718230748,0.848667110697,0.754690962488,0.661581558096,0.698107434121,1.05817813257,0.964666246646,1.15166476145,1.07617456186,1.11150763498,0.768496762013,0.977490287004,0.69087586489,0.93209838419,1.03382827115,0.964666246646
23.5,1.16293587378,0.546104340676,0.624106852677,1.20170544395,1.08212382819,0.78217169891,0.683607864426,0.775350433054,0.829038303948,0.906000285763,0.795718230748,0.661581558096,0.775350433054,1.16293587378,1.08212382819,1.25534340755,1.18521732116,1.21800725628,0.868032435564,1.10567855617,0.754690962488,1.04605457349,1.15731132459,1.07617456186
25.0,1.20715987404,0.538067021611,0.569951082631,1.28143263642,1.15731132459,0.74075177153,0.608840096024,0.69087586489,0.775350433054,0.822435569123,0.712462727098,0.593410055455,0.676303063803,1.22340051505,1.16853858001,1.3421866675,1.25006846551,1.28143263642,0.775350433054,1.17967913762,0.705302935525,1.12309560925,1.22877368715,1.14030489928
26.5,1.30196956742,0.601145704234,0.668961088462,1.36188246884,1.25534340755,0.80913874651,0.69087586489,0.761610376427,0.855151144267,0.906000285763,0.726676586318,0.719587161532,0.726676586318,1.30705844409,1.25534340755,1.43343572986,1.32723632603,1.37647984505,0.880799731637,1.27105349064,0.822435569123,1.21259376009,1.27625239731,1.22877368715
28.0,1.37163044539,0.639213745068,0.733731343852,1.38131299879,1.31212943364,0.880799731637,0.719587161532,0.829038303948,0.942994493245,0.967140580576,0.80913874651,0.78217169891,0.802444093936,1.34713588347,1.31718266137,1.5016072325,1.37647984505,1.42877435249,0.936894293708,1.3421866675,0.835610957871,1.27105349064,1.32723632603,1.30196956742
29.5,1.41469916728,0.683607864426,0.795718230748,1.41940616996,1.36188246884,0.979063747952,0.747738201846,0.868032435564,0.990889183349,1.02003552901,0.848667110697,0.822435569123,0.848667110697,1.38613001508,1.35698366943,1.55819076087,1.41940616996,1.47019427987,0.984988581909,1.37647984505,0.942994493245,1.31718266137,1.36188246884,1.33223700709
31.0,1.47019427987,0.712462727098,0.893455032443,1.46109207277,1.38613001508,1.1203404348,0.78217169891,0.918437389001,1.06547849977,1.1364002857,0.936894293708,0.912232239474,0.961141839955,1.40997675704,1.38613001508,1.62083569786,1.45193207348,1.49716132747,1.03153116785,1.41940616996,1.1364002857,1.36188246884,1.41469916728,1.37163044539
32.5,1.53235075594,0.768496762013,0.92461596393,1.4882282027,1.43343572986,1.15753905276,0.868032435564,1.00844755473,1.08767424588,1.17319231707,0.979063747952,0.955118052327,0.979063747952,1.46109207277,1.42877435249,1.66906397836,1.49716132747,1.54962874737,1.1203404348,1.44733017152,1.16277570112,1.39571606391,1.47019427987,1.40997675704
34.0,1.58357607929,0.788960864572,1.04860468121,1.54962874737,1.46565035473,1.32571427225,0.887141258511,1.0986453637,1.24900809877,1.32571427225,1.1417140856,1.10953367985,1.1679934104,1.4882282027,1.46109207277,1.70420578448,1.53235075594,1.57937609076,1.15753905276,1.49716132747,1.36259027449,1.43343572986,1.52363353883,1.44733017152
35.5,1.60025482044,0.788960864572,0.973114481621,1.57937609076,1.47472393835,1.2588223886,0.912232239474,1.09317023364,1.16277570112,1.26370460998,1.17837255618,1.1364002857,1.1417140856,1.49270167928,1.47019427987,1.73095851208,1.53235075594,1.57516383947,1.14700838527,1.48374081171,1.26857036515,1.44271354345,1.55391610577,1.44733017152
37.0,1.61263854489,0.775350433054,0.967140580576,1.60025482044,1.49270167928,1.2588223886,0.936894293708,1.08767424588,1.16277570112,1.29742522782,1.2090693534,1.1040997938,1.1417140856,1.5016072325,1.49270167928,1.74602596017,1.54532860993,1.59193955223,1.11494717603,1.50603947882,1.23416033436,1.45651934298,1.59610317717,1.46565035473
38.5,1.64112710185,0.768496762013,0.973114481621,1.63304475556,1.51045815009,1.31163908704,0.961141839955,1.03153116785,1.18353426129,1.24407580323,1.2090693534,1.11494717603,1.18867756457,1.50603947882,1.51486332921,1.73095851208,1.54962874737,1.59610317717,1.1040997938,1.51486332921,1.26857036515,1.46565035473,1.62083569786,1.49270167928
40.0,1.64916442092,0.747738201846,0.918437389001,1.66906397836,1.52363353883,1.29742522782,0.979063747952,0.996765749686,1.10953367985,1.21412258112,1.19380259675,1.09317023364,1.10953367985,1.52363353883,1.51925509832,1.76464163834,1.57937609076,1.61674294323,1.0986453637,1.54962874737,1.26857036515,1.49270167928,1.66510596479,1.49716132747
41.5,1.64515135841,0.719587161532,0.887141258511,1.68869278511,1.54101561706,1.31634608972,0.92461596393,0.936894293708,1.07105953203,1.15228332731,1.18867756457,1.04860468121,1.10953367985,1.54101561706,1.54101561706,1.7683361219,1.57937609076,1.61263854489,1.02003552901,1.54101561706,1.29742522782,1.5016072325,1.66510596479,1.49270167928
43.0,1.64916442092,0.719587161532,0.835610957871,1.6964701357,1.53235075594,1.22417624579,0.906000285763,0.930768190911,1.03724481904,1.09317023364,1.08215724092,0.984988581909,1.00844755473,1.53668969166,1.53235075594,1.77936314405,1.58776387625,1.61674294323,1.02003552901,1.53235075594,1.16277570112,1.49716132747,1.67694757743,1.48374081171
44.5,1.71573203786,0.74075177153,0.861606166404,1.72716693292,1.54962874737,1.23416033436,1.03153116785,1.01425317641,1.08767424588,1.15753905276,1.11494717603,1.00261847593,1.04293593112,1.57516383947,1.54532860993,1.83679142409,1.61674294323,1.64916442092,1.10953367985,1.57093925361,1.18353426129,1.50603947882,1.71573203786,1.5016072325
46.0,1.68478833065,0.698107434121,0.822435569123,1.73095851208,1.56670226073,1.18867756457,0.942994493245,0.936894293708,1.04860468121,1.11494717603,1.05987579354,0.967140580576,0.990889183349,1.58776387625,1.55819076087,1.81552280734,1.63304475556,1.65715721167,1.03724481904,1.57516383947,1.15228332731,1.5279987314,1.71190017627,1.51486332921
47.5,1.71955374881,0.719587161532,0.822435569123,1.73095851208,1.59193955223,1.20399836385,0.942994493245,0.942994493245,1.04860468121,1.1257136069,1.08767424588,0.973114481621,0.996765749686,1.60025482044,1.57516383947,1.82619630885,1.63304475556,1.66906397836,1.04293593112,1.62083569786,1.2090693534,1.54962874737,1.73095851208,1.54101561706
49.0,1.70805810997,0.698107434121,0.80913874651,1.74602596017,1.58776387625,1.21412258112,0.930768190911,0.92461596393,1.03153116785,1.10953367985,1.08215724092,0.961141839955,0.996765749686,1.62083569786,1.58357607929,1.84030590827,1.64916442092,1.68087328065,1.0257947983,1.62491687467,1.2090693534,1.55819076087,1.73851190651,1.54962874737
50.5,1.74227382531,0.705302935525,0.795718230748,1.78666794467,1.61674294323,1.17837255618,0.912232239474,0.912232239474,1.02003552901,1.08215724092,1.07105953203,0.936894293708,0.990889183349,1.65316635148,1.61263854489,1.87498774766,1.69258670121,1.72716693292,1.01425317641,1.66510596479,1.17837255618,1.59193955223,1.7683361219,1.59193955223
52.0,1.73851190651,0.705302935525,0.802444093936,1.79030652173,1.62083569786,1.18867756457,0.887141258511,0.92461596393,1.0257947983,1.08767424588,1.08767424588,0.955118052327,0.996765749686,1.65715721167,1.62083569786,1.89540358421,1.68869278511,1.73474015262,1.00844755473,1.67694757743,1.17837255618,1.6043945508,1.78302016765,1.61674294323
53.5,1.7683361219,0.668961088462,0.78217169891,1.80116751436,1.66510596479,1.15753905276,0.887141258511,0.880799731637,1.00844755473,1.07105953203,1.05425124435,0.936894293708,0.979063747952,1.69258670121,1.66113706258,1.90885538368,1.72336536276,1.79755626081,0.984988581909,1.72716693292,1.15228332731,1.63304475556,1.79030652173,1.66510596479
55.0,1.79755626081,0.676303063803,0.775350433054,1.81908942236,1.69258670121,1.14700838527,0.906000285763,0.887141258511,0.990889183349,1.05987579354,1.04293593112,0.92461596393,0.961141839955,1.71955374881,1.69258670121,1.91886255703,1.75722416678,1.81908942236,0.979063747952,1.76464163834,1.1310668414,1.67301116287,1.80836301577,1.69258670121
56.5,1.80116751436,0.683607864426,0.761610376427,1.82264724177,1.71955374881,1.1257136069,0.887141258511,0.868032435564,0.979063747952,1.04860468121,1.03153116785,0.906000285763,0.942994493245,1.74602596017,1.72336536276,1.94194617015,1.77936314405,1.84030590827,0.967140580576,1.80116751436,1.11494717603,1.68869278511,1.82619630885,1.73095851208
58.0,1.82973666656,0.683607864426,0.747738201846,1.84030590827,1.74602596017,1.11494717603,0.887141258511,0.855151144267,0.967140580576,1.04293593112,1.02003552901,0.899741295291,0.92461596393,1.76464163834,1.74976836186,1.93867103811,1.80476975104,1.85427885082,0.955118052327,1.81908942236,1.0986453637,1.73095851208,1.83326835753,1.75350108073
59.5,1.86121489803,0.676303063803,0.726676586318,1.86121489803,1.78302016765,1.09317023364,0.802444093936,0.848667110697,0.955118052327,1.03153116785,1.00261847593,0.874430206762,0.906000285763,1.81552280734,1.77936314405,1.96466624665,1.81908942236,1.89877831099,0.949069007654,1.81908942236,1.08767424588,1.7683361219,1.85427885082,1.80476975104
61.0,1.86467045667,0.668961088462,0.705302935525,1.87498774766,1.82619630885,1.07105953203,0.842153803738,0.835610957871,0.942994493245,1.00844755473,0.996765749686,0.855151144267,0.887141258511,1.83679142409,1.82264724177,1.98067856463,1.86121489803,1.91886255703,0.936894293708,1.85427885082,1.07661905737,1.79755626081,1.88523177915,1.83679142409
62.5,1.86467045667,0.646708281615,0.69087586489,1.88182517771,1.86121489803,1.06547849977,0.829038303948,0.829038303948,0.930768190911,1.00261847593,0.984988581909,0.835610957871,0.880799731637,1.85775104273,1.82264724177,1.98703405967,1.89877831099,1.92549564937,0.92461596393,1.92218291532,1.06547849977,1.80476975104,1.88182517771,1.84730929601
64.0,1.89202094481,0.661581558096,0.683607864426,1.89877831099,1.88863035561,1.05425124435,0.822435569123,0.815802476791,0.930768190911,0.996765749686,0.984988581909,0.829038303948,0.880799731637,1.88182517771,1.86811775829,2.01839823058,1.93209838419,1.91886255703,0.930768190911,1.95172719094,1.05425124435,1.84030590827,1.90550417418,1.88182517771
65.5,1.88863035561,0.616493668568,0.646708281615,1.89877831099,1.88863035561,1.03153116785,0.775350433054,0.754690962488,0.880799731637,0.942994493245,0.955118052327,0.795718230748,0.835610957871,1.89202094481,1.87498774766,2.00593426502,1.90885538368,1.94521388398,0.842153803738,1.98385981188,1.03724481904,1.85079828209,1.88863035561,1.90885538368
67.0,1.91219882675,0.631680072382,0.654164086534,1.92880079409,1.90550417418,1.03153116785,0.815802476791,0.78217169891,0.899741295291,0.967140580576,0.949069007654,0.795718230748,0.848667110697,1.89877831099,1.90214516209,2.06119317032,1.90550417418,1.94194617015,0.893455032443,1.97429494784,1.0257947983,1.86121489803,1.91886255703,1.93867103811
68.5,1.95172719094,0.719587161532,0.676303063803,1.93867103811,1.94521388398,1.03724481904,0.942994493245,0.855151144267,0.92461596393,0.996765749686,0.967140580576,0.829038303948,0.874430206762,1.94521388398,1.92218291532,2.04300769793,1.96466624665,1.999661668,0.949069007654,2.03382827115,1.03724481904,1.87498774766,1.92549564937,1.99336167965
70.0,1.95497285044,0.668961088462,0.661581558096,1.94194617015,1.95497285044,1.02003552901,0.887141258511,0.815802476791,0.899741295291,0.961141839955,0.942994493245,0.802444093936,0.848667110697,1.93867103811,1.92880079409,2.0245900643,1.98067856463,2.00593426502,0.92461596393,2.05817813257,1.0257947983,1.89540358421,1.94194617015,2.0245900643
71.5,1.94194617015,0.668961088462,0.639213745068,1.95821122451,1.96144234577,0.996765749686,0.835610957871,0.775350433054,0.861606166404,0.92461596393,0.912232239474,0.775350433054,0.815802476791,1.92218291532,1.96788295933,2.04300769793,1.93209838419,1.99651511269,0.880799731637,2.04605457349,1.00261847593,1.90214516209,1.95821122451,2.03382827115
