time,0,1,2,3,4,5,6,7,8,9,10,11,12,13,14,15,16,17,18,19,20,21,22,23,24,25,26,27,28,29,30,31,32,33,34,35
2.5,0.0678570856142,-0.217838153396,-0.181001385215,-0.121622838136,-0.255640186108,0.0534638684218,-0.0446176436442,-0.217838153396,-0.0446176436442,-0.0576737964696,-0.156955911249,0.0313312095891,-0.00614349582956,-0.0188545475791,-0.0316785879367,-0.0188545475791,-0.0316785879367,-0.0188545475791,-0.255640186108,-0.0188545475791,0.0009964485277,-0.0534513354947,-0.110034863861,-0.133304643184,-0.0534513354947,0.190967392172,0.290503065723,0.18156869417,0.237063806761,0.237063806761,0.281732856095,-0.0758191485231,0.104089941492,0.032705308255,-0.0645918930999,-0.087134461751
4.0,0.0917038275686,-0.193176099161,-0.168928552915,-0.0985392250232,-0.230329097579,0.0739279709816,-0.0188545475791,-0.193176099161,-0.00614349582956,-0.0316785879367,-0.14508181096,0.0678570856142,0.0189474851333,0.0189474851333,-0.00614349582956,0.00645654095008,0.00645654095008,0.00645654095008,-0.230329097579,0.00645654095008,0.032705308255,-0.0205367130219,-0.0985392250232,-0.110034863861,-0.0423961469857,0.237063806761,0.307885143951,0.218801600368,0.264030854361,0.264030854361,0.299220282824,-0.0534513354947,0.133634217106,0.0431219242004,-0.0314250291647,-0.0645918930999
5.5,0.0917038275686,-0.181001385215,-0.14508181096,-0.0758191485231,-0.217838153396,0.104089941492,-0.00614349582956,-0.181001385215,0.00645654095008,-0.0188545475791,-0.121622838136,0.0678570856142,0.0313312095891,0.0189474851333,0.00645654095008,0.0189474851333,0.0189474851333,0.0189474851333,-0.20545442894,0.0189474851333,0.0739279709816,0.0009964485277,-0.0758191485231,-0.0985392250232,-0.0205367130219,0.264030854361,0.333571787615,0.237063806761,0.290503065723,0.299220282824,0.316498274256,-0.0205367130219,0.162585590802,0.0739279709816,-0.0205367130219,-0.0423961469857
7.0,0.103480995345,-0.156955911249,-0.121622838136,-0.0645918930999,-0.193176099161,0.123853196313,0.0189474851333,-0.156955911249,0.0189474851333,0.00645654095008,-0.0985392250232,0.0798297272803,0.0313312095891,0.0313312095891,0.0189474851333,0.0436095393675,0.0313312095891,0.0313312095891,-0.181001385215,0.0313312095891,0.104089941492,0.0116436927272,-0.0534513354947,-0.0758191485231,0.0009964485277,0.299220282824,0.350445606179,0.255097729591,0.316498274256,0.325060287759,0.342033366363,-0.00972995806536,0.190967392172,0.104089941492,0.0009964485277,-0.00972995806536
8.5,0.138246413506,-0.133304643184,-0.087134461751,-0.0314250291647,-0.168928552915,0.17210836492,0.0436095393675,-0.133304643184,0.0436095393675,0.0189474851333,-0.0645918930999,0.103480995345,0.0557842533136,0.0557842533136,0.0436095393675,0.0557842533136,0.0557842533136,0.0557842533136,-0.168928552915,0.0557842533136,0.17210836492,0.0534638684218,-0.0314250291647,-0.0423961469857,0.032705308255,0.333571787615,0.383612470114,0.307885143951,0.350445606179,0.367124347326,0.383612470114,0.032705308255,0.218801600368,0.133634217106,0.0431219242004,0.032705308255
10.0,0.126750774668,-0.110034863861,-0.087134461751,-0.0423961469857,-0.14508181096,0.123853196313,0.0557842533136,-0.110034863861,0.0678570856142,0.0436095393675,-0.0645918930999,0.103480995345,0.0678570856142,0.0557842533136,0.0436095393675,0.0678570856142,0.0678570856142,0.0678570856142,-0.133304643184,0.0798297272803,0.114005410357,0.0222129344374,-0.0314250291647,-0.0423961469857,0.0116436927272,0.272909005708,0.333571787615,0.255097729591,0.307885143951,0.325060287759,0.350445606179,0.0116436927272,0.18156869417,0.123853196313,0.0534638684218,0.0431219242004
11.5,0.194389491543,-0.0645918930999,-0.0314250291647,0.032705308255,-0.0985392250232,0.246108946364,0.0917038275686,-0.0645918930999,0.115162800393,0.0917038275686,-0.00972995806536,0.160966490006,0.115162800393,0.103480995345,0.0798297272803,0.103480995345,0.103480995345,0.103480995345,-0.087134461751,0.115162800393,0.255097729591,0.123853196313,0.0222129344374,0.0116436927272,0.0941058529192,0.399914282443,0.439880689761,0.350445606179,0.399914282443,0.42402673856,0.439880689761,0.0941058529192,0.272909005708,0.209583070339,0.123853196313,0.104089941492
13.0,0.205360609364,-0.0423961469857,0.0009964485277,0.0431219242004,-0.0758191485231,0.281732856095,0.103480995345,-0.0423961469857,0.115162800393,0.103480995345,0.0222129344374,0.172193745429,0.126750774668,0.103480995345,0.0917038275686,0.115162800393,0.115162800393,0.126750774668,-0.0645918930999,0.126750774668,0.290503065723,0.143349371939,0.0534638684218,0.0431219242004,0.114005410357,0.42402673856,0.455562311993,0.367124347326,0.416033947807,0.447742807534,0.455562311993,0.104089941492,0.299220282824,0.237063806761,0.152999541973,0.133634217106
14.5,0.183334303034,0.0009964485277,0.0116436927272,0.032705308255,-0.0314250291647,0.237063806761,0.126750774668,-0.00972995806536,0.138246413506,0.115162800393,0.032705308255,0.160966490006,0.126750774668,0.103480995345,0.0917038275686,0.115162800393,0.138246413506,0.138246413506,-0.0314250291647,0.138246413506,0.237063806761,0.114005410357,0.0739279709816,0.0637322038757,0.0840521882553,0.375391963309,0.407996628741,0.325060287759,0.375391963309,0.407996628741,0.42402673856,0.0840521882553,0.272909005708,0.237063806761,0.162585590802,0.152999541973
16.0,0.227055680463,0.0431219242004,0.0637322038757,0.0941058529192,0.0222129344374,0.367124347326,0.138246413506,0.032705308255,0.160966490006,0.138246413506,0.0941058529192,0.194389491543,0.149651176778,0.126750774668,0.103480995345,0.126750774668,0.149651176778,0.149651176778,0.0222129344374,0.160966490006,0.383612470114,0.218801600368,0.114005410357,0.104089941492,0.17210836492,0.486423275698,0.501609679513,0.416033947807,0.463339662585,0.509143352198,0.516637888745,0.162585590802,0.367124347326,0.333571787615,0.237063806761,0.209583070339
17.5,0.205360609364,0.0941058529192,0.0840521882553,0.0941058529192,0.0739279709816,0.316498274256,0.160966490006,0.0534638684218,0.183334303034,0.160966490006,0.0941058529192,0.183334303034,0.149651176778,0.138246413506,0.115162800393,0.149651176778,0.160966490006,0.160966490006,0.0637322038757,0.172193745429,0.325060287759,0.18156869417,0.143349371939,0.143349371939,0.143349371939,0.431975491676,0.447742807534,0.375391963309,0.407996628741,0.471075311365,0.471075311365,0.143349371939,0.333571787615,0.333571787615,0.255097729591,0.237063806761
19.0,0.216248925507,0.162585590802,0.133634217106,0.133634217106,0.133634217106,0.358809079114,0.183334303034,0.104089941492,0.205360609364,0.183334303034,0.143349371939,0.194389491543,0.160966490006,0.160966490006,0.138246413506,0.160966490006,0.183334303034,0.183334303034,0.123853196313,0.194389491543,0.399914282443,0.227961599654,0.190967392172,0.18156869417,0.190967392172,0.478769703155,0.478769703155,0.407996628741,0.447742807534,0.509143352198,0.509143352198,0.190967392172,0.375391963309,0.39178640156,0.325060287759,0.281732856095
20.5,0.269490946784,0.237063806761,0.200305256751,0.209583070339,0.200305256751,0.494036459808,0.205360609364,0.162585590802,0.216248925507,0.194389491543,0.218801600368,0.248429331256,0.205360609364,0.183334303034,0.172193745429,0.194389491543,0.205360609364,0.205360609364,0.200305256751,0.216248925507,0.516637888745,0.350445606179,0.281732856095,0.255097729591,0.281732856095,0.61068137866,0.603660950982,0.531511165226,0.575232542656,0.631539983558,0.624620569618,0.281732856095,0.471075311365,0.509143352198,0.431975491676,0.358809079114
22.0,0.258998572966,0.316498274256,0.237063806761,0.218801600368,0.290503065723,0.471075311365,0.227055680463,0.209583070339,0.248429331256,0.227055680463,0.246108946364,0.237782087057,0.205360609364,0.194389491543,0.172193745429,0.205360609364,0.227055680463,0.227055680463,0.281732856095,0.237782087057,0.463339662585,0.316498274256,0.299220282824,0.299220282824,0.281732856095,0.575232542656,0.560805472021,0.478769703155,0.524093693664,0.589516768662,0.582392334229,0.272909005708,0.455562311993,0.538890695592,0.463339662585,0.399914282443
23.5,0.269490946784,0.42402673856,0.307885143951,0.264030854361,0.407996628741,0.524093693664,0.248429331256,0.281732856095,0.258998572966,0.248429331256,0.307885143951,0.248429331256,0.216248925507,0.216248925507,0.194389491543,0.216248925507,0.248429331256,0.248429331256,0.383612470114,0.258998572966,0.501609679513,0.358809079114,0.463339662585,0.375391963309,0.316498274256,0.638426369143,0.603660950982,0.531511165226,0.582392334229,0.638426369143,0.631539983558,0.316498274256,0.509143352198,0.617667808976,0.560805472021,0.471075311365
25.0,0.290249506951,0.538890695592,0.39178640156,0.333571787615,0.524093693664,0.582392334229,0.290249506951,0.367124347326,0.300517842404,0.269490946784,0.399914282443,0.269490946784,0.237782087057,0.237782087057,0.227055680463,0.258998572966,0.279907562729,0.290249506951,0.494036459808,0.290249506951,0.582392334229,0.447742807534,0.546232670933,0.486423275698,0.39178640156,0.698967911078,0.658890471703,0.582392334229,0.617667808976,0.698967911078,0.67906835364,0.39178640156,0.560805472021,0.718596717827,0.645280040184,0.546232670933
26.5,0.31071360951,0.65210130604,0.486423275698,0.407996628741,0.631539983558,0.665647837878,0.31071360951,0.463339662585,0.320837826784,0.290249506951,0.494036459808,0.290249506951,0.258998572966,0.269490946784,0.248429331256,0.279907562729,0.31071360951,0.31071360951,0.61068137866,0.320837826784,0.645280040184,0.531511165226,0.712083410868,0.596606193448,0.478769703155,0.769670902421,0.712083410868,0.65210130604,0.67906835364,0.769670902421,0.757070865642,0.471075311365,0.638426369143,0.825047659458,0.763384639574,0.645280040184
28.0,0.330891491448,0.757070865642,0.582392334229,0.486423275698,0.731535773534,0.725080751397,0.340875580021,0.546232670933,0.350791048886,0.320837826784,0.575232542656,0.31071360951,0.279907562729,0.290249506951,0.279907562729,0.31071360951,0.340875580021,0.340875580021,0.718596717827,0.360638834842,0.692365176254,0.61068137866,0.825047659458,0.698967911078,0.538890695592,0.860818790479,0.788366996131,0.712083410868,0.737962042694,0.837070187707,0.812924100375,0.538890695592,0.712083410868,0.940989139163,0.872548083062,0.737962042694
29.5,0.350791048886,0.843044088751,0.692365176254,0.575232542656,0.818998614785,0.818998614785,0.380135010468,0.665647837878,0.380135010468,0.350791048886,0.685732083921,0.340875580021,0.31071360951,0.320837826784,0.31071360951,0.340875580021,0.380135010468,0.380135010468,0.800697798042,0.380135010468,0.750729338768,0.692365176254,0.884182783545,0.800697798042,0.624620569618,0.9354081069,0.866695356816,0.800697798042,0.818998614785,0.918534288336,0.907174426171,0.631539983558,0.800697798042,1.03792301753,0.979463286978,0.837070187707
31.0,0.370419855635,0.940989139163,0.818998614785,0.672373701066,0.924180851477,0.912865538249,0.408894003449,0.782161846604,0.408894003449,0.380135010468,0.812924100375,0.360638834842,0.330891491448,0.360638834842,0.340875580021,0.380135010468,0.418354332698,0.408894003449,0.889965136139,0.418354332698,0.837070187707,0.79454557106,1.0169379924,0.912865538249,0.725080751397,1.04830216331,0.952086848047,0.889965136139,0.901460774977,1.02221293444,1.00632989283,0.731535773534,0.901460774977,1.11400541036,1.06373220388,0.9354081069
32.5,0.408894003449,1.03270530826,0.912865538249,0.775929892893,1.02746865989,0.974029400927,0.446368708868,0.866695356816,0.446368708868,0.408894003449,0.912865538249,0.399371229331,0.370419855635,0.399371229331,0.380135010468,0.408894003449,0.455587238897,0.446368708868,0.979463286978,0.455587238897,0.895724405428,0.889965136139,1.17210836492,1.00099644853,0.825047659458,1.11400541036,1.0431219242,0.990270041935,1.00099644853,1.09910653398,1.08405218826,0.825047659458,0.990270041935,1.18627569685,1.12385319631,1.00632989283
34.0,0.464747238183,1.13363421711,1.03270530826,0.918534288336,1.14334937194,1.14818252567,0.482894584893,0.963099840769,0.47384944529,0.43709089528,1.02746865989,0.455587238897,0.418354332698,0.446368708868,0.427753030701,0.455587238897,0.49188336812,0.482894584893,1.03270530826,0.49188336812,1.07392797098,1.04830216331,1.29486825828,1.12385319631,0.984876783164,1.26403085436,1.19096739217,1.13363421711,1.14334937194,1.26403085436,1.23251988162,0.968574970835,1.12875199573,1.27290900571,1.22338886986,1.12875199573
35.5,0.49188336812,1.19564387938,1.10408994149,1.01164369273,1.22796159965,1.19096739217,0.518518494624,1.0169379924,0.518518494624,0.464747238183,1.09410585292,0.482894584893,0.446368708868,0.482894584893,0.464747238183,0.50081649289,0.536005921353,0.527288704252,1.08405218826,0.527288704252,1.12875199573,1.12875199573,1.37126407769,1.22338886986,1.06373220388,1.31219813682,1.26403085436,1.20958307034,1.21880160037,1.30355921855,1.28612462521,1.06373220388,1.18627569685,1.31219813682,1.25957120617,1.15780052824
37.0,0.518518494624,1.25509772959,1.14818252567,1.02746865989,1.23706380676,1.19096739217,0.553283912784,1.06883909431,0.54467078248,0.50081649289,1.10905619439,0.509694644237,0.482894584893,0.536005921353,0.509694644237,0.536005921353,0.570357426143,0.561845926288,1.10408994149,0.561845926288,1.14334937194,1.09910653398,1.38770522475,1.24159346524,1.07899896053,1.35880907911,1.33357178761,1.26847675939,1.26847675939,1.34624561765,1.33357178761,1.07392797098,1.24610894636,1.35880907911,1.30355921855,1.20495162161
38.5,0.50081649289,1.32506028776,1.18156869417,1.12385319631,1.27290900571,1.22796159965,0.587231244708,1.10905619439,0.587231244708,0.536005921353,1.15780052824,0.518518494624,0.49188336812,0.553283912784,0.527288704252,0.570357426143,0.612177601838,0.603909985854,1.14818252567,0.603909985854,1.11400541036,1.17210836492,1.56803704125,1.28612462521,1.12385319631,1.36712434733,1.36297270406,1.29486825828,1.30788514395,1.37126407769,1.35880907911,1.13363421711,1.27290900571,1.36297270406,1.31219813682,1.20958307034
40.0,0.527288704252,1.36712434733,1.20958307034,1.13849997228,1.27732767697,1.2506103386,0.628572040089,1.13849997228,0.620398108643,0.561845926288,1.17684628393,0.54467078248,0.518518494624,0.595594717642,0.570357426143,0.612177601838,0.652819586335,0.636699920972,1.18627569685,0.636699920972,1.14818252567,1.17210836492,1.62808442492,1.30355921855,1.13363421711,1.40396111551,1.37950807178,1.31649827426,1.3378087805,1.37950807178,1.38361247011,1.14334937194,1.31649827426,1.37539196331,1.32932231461,1.24159346524
41.5,0.54467078248,1.37126407769,1.30355921855,1.26847675939,1.35463340314,1.30788514395,0.668761130204,1.21419969841,0.660812377089,0.587231244708,1.27290900571,0.578819004892,0.553283912784,0.628572040089,0.603909985854,0.652819586335,0.67666632829,0.67666632829,1.20958307034,0.668761130204,1.23706380676,1.26847675939,1.66901468898,1.32506028776,1.24610894636,1.44381710432,1.45556231199,1.38770522475,1.38770522475,1.43988068976,1.4120208853,1.25509772959,1.34203336636,1.41603394781,1.35463340314,1.2506103386
43.0,0.570357426143,1.38361247011,1.31219813682,1.27732767697,1.29050306572,1.32078563266,0.692347950522,1.19564387938,0.700125301114,0.612177601838,1.27732767697,0.612177601838,0.587231244708,0.67666632829,0.652819586335,0.692347950522,0.715555341683,0.715555341683,1.23706380676,0.700125301114,1.2506103386,1.26847675939,1.73153577353,1.38361247011,1.24610894636,1.46333966258,1.5091433522,1.42003587836,1.42800658947,1.46721267173,1.44774280753,1.26847675939,1.36297270406,1.42003587836,1.36712434733,1.26847675939
44.5,0.587231244708,1.28612462521,1.31649827426,1.31219813682,1.27290900571,1.36712434733,0.738395318041,1.19564387938,0.723208914227,0.652819586335,1.29486825828,0.628572040089,0.612177601838,0.700125301114,0.684528446063,0.730822098337,0.745928990727,0.745928990727,1.24610894636,0.730822098337,1.25509772959,1.31649827426,1.69236517625,1.38361247011,1.28173285609,1.4864232757,1.5053814334,1.43197549168,1.45165785754,1.47492763686,1.46333966258,1.29050306572,1.39991428244,1.42800658947,1.38361247011,1.28173285609
46.0,0.603909985854,1.37950807178,1.34624561765,1.35463340314,1.3378087805,1.4120208853,0.753423527274,1.27732767697,0.745928990727,0.660812377089,1.31649827426,0.652819586335,0.628572040089,0.730822098337,0.700125301114,0.753423527274,0.768296803755,0.768296803755,1.28173285609,0.753423527274,1.32932231461,1.36712434733,1.67906835364,1.50160967951,1.31649827426,1.5091433522,1.56080547202,1.5091433522,1.50160967951,1.52037060762,1.5091433522,1.33357178761,1.43197549168,1.46333966258,1.41603394781,1.30355921855
47.5,0.64478226727,1.39585606587,1.34624561765,1.3378087805,1.43197549168,1.38770522475,0.797591110549,1.25509772959,0.790323110085,0.700125301114,1.30355921855,0.684528446063,0.67666632829,0.775676334121,0.753423527274,0.797591110549,0.819177972757,0.812018181185,1.29486825828,0.797591110549,1.30788514395,1.37539196331,1.71859671783,1.57881688,1.30788514395,1.51289548706,1.57163927793,1.4864232757,1.50160967951,1.51663788874,1.49782803897,1.3378087805,1.42402673856,1.46721267173,1.39178640156,1.30788514395
49.0,0.67666632829,1.4120208853,1.35463340314,1.38770522475,1.43197549168,1.42402673856,0.833391831977,1.25957120617,0.819177972757,0.715555341683,1.32932231461,0.730822098337,0.707860949893,0.819177972757,0.790323110085,0.840446589511,0.854453447505,0.854453447505,1.29922028282,0.840446589511,1.37539196331,1.39178640156,1.6622731111,1.58951676866,1.3378087805,1.55717604862,1.58951676866,1.50160967951,1.51289548706,1.52780719646,1.51289548706,1.35880907911,1.43593350524,1.4594562281,1.40396111551,1.29922028282
50.5,0.684528446063,1.42402673856,1.37539196331,1.40799662874,1.44381710432,1.46333966258,0.861406208147,1.28612462521,0.847467017189,0.745928990727,1.35044560618,0.738395318041,0.723208914227,0.840446589511,0.812018181185,0.868325622087,0.882065678713,0.861406208147,1.32506028776,0.847467017189,1.37950807178,1.40396111551,1.63842636914,1.54988969454,1.34203336636,1.53151116523,1.60366095098,1.5091433522,1.51289548706,1.53889069559,1.51663788874,1.37539196331,1.43988068976,1.47107531136,1.39585606587,1.31649827426
52.0,0.700125301114,1.43197549168,1.35044560618,1.37126407769,1.44381710432,1.46333966258,0.882065678713,1.27290900571,0.875212007672,0.753423527274,1.33357178761,0.760879332193,0.738395318041,0.868325622087,0.840446589511,0.895676110232,0.902433476407,0.888886944569,1.35044560618,0.868325622087,1.35044560618,1.37539196331,1.66564783788,1.4864232757,1.34203336636,1.54256635374,1.60366095098,1.52037060762,1.52780719646,1.53889069559,1.5053814334,1.37539196331,1.44774280753,1.47876970315,1.43197549168,1.31649827426
53.5,0.715555341683,1.44381710432,1.37539196331,1.38770522475,1.42800658947,1.4864232757,0.915853992169,1.28612462521,0.902433476407,0.783018309462,1.36297270406,0.783018309462,0.760879332193,0.895676110232,0.868325622087,0.929150814783,0.935753549607,0.909159339595,1.37126407769,0.882065678713,1.39178640156,1.40799662874,1.55717604862,1.49023488965,1.37126407769,1.57523254266,1.62462056962,1.53520564878,1.54623267093,1.5644257877,1.53520564878,1.39991428244,1.47492763686,1.4864232757,1.43988068976,1.32932231461
55.0,0.723208914227,1.47492763686,1.36297270406,1.38361247011,1.4594562281,1.48260156475,0.948869049397,1.30355921855,0.929150814783,0.80482267978,1.36297270406,0.80482267978,0.790323110085,0.935753549607,0.902433476407,0.955382356356,0.94232620353,0.92251772245,1.39991428244,0.875212007672,1.4120208853,1.44774280753,1.53520564878,1.49782803897,1.39178640156,1.57163927793,1.64185727454,1.55353747156,1.55353747156,1.56803704125,1.54256635374,1.40396111551,1.48260156475,1.50160967951,1.43988068976,1.33357178761
56.5,0.738395318041,1.49782803897,1.39178640156,1.40396111551,1.48260156475,1.4594562281,0.961866389926,1.32506028776,0.948869049397,0.826302407191,1.37950807178,0.819177972757,0.80482267978,0.968321412063,0.929150814783,0.981145452421,0.94232620353,0.92251772245,1.42003587836,0.882065678713,1.40396111551,1.40396111551,1.53151116523,1.5091433522,1.38361247011,1.57163927793,1.63498728518,1.56803704125,1.57163927793,1.58239233423,1.56080547202,1.42003587836,1.49403645981,1.53520564878,1.47492763686,1.36297270406
58.0,0.745928990727,1.52037060762,1.39585606587,1.4120208853,1.52037060762,1.49403645981,0.961866389926,1.35463340314,0.948869049397,0.847467017189,1.38770522475,0.861406208147,0.847467017189,0.987514977297,0.955382356356,0.99385650417,0.929150814783,0.915853992169,1.45165785754,0.868325622087,1.4120208853,1.42003587836,1.55353747156,1.53151116523,1.39991428244,1.59660619345,1.62808442492,1.56080547202,1.57163927793,1.60366095098,1.57523254266,1.43197549168,1.5053814334,1.54988969454,1.49782803897,1.37126407769
59.5,0.768296803755,1.53889069559,1.4120208853,1.40799662874,1.54256635374,1.49403645981,0.981145452421,1.37950807178,0.955382356356,0.854453447505,1.4120208853,0.895676110232,0.875212007672,0.99385650417,0.968321412063,1.00645654095,0.915853992169,0.895676110232,1.46333966258,0.854453447505,1.41603394781,1.46333966258,1.59660619345,1.53520564878,1.40396111551,1.62114837771,1.64528004018,1.55717604862,1.56803704125,1.58239233423,1.58951676866,1.44774280753,1.52409369366,1.57523254266,1.5053814334,1.34624561765
61.0,0.768296803755,1.57163927793,1.43593350524,1.45556231199,1.5644257877,1.54256635374,0.94232620353,1.37950807178,0.929150814783,0.882065678713,1.43197549168,0.909159339595,0.888886944569,0.981145452421,0.955382356356,0.961866389926,0.902433476407,0.882065678713,1.51289548706,0.840446589511,1.47107531136,1.50160967951,1.57163927793,1.56803704125,1.45165785754,1.62808442492,1.66564783788,1.59660619345,1.61068137866,1.6554998825,1.62462056962,1.48260156475,1.54256635374,1.61068137866,1.54623267093,1.39991428244
62.5,0.833391831977,1.58951676866,1.46721267173,1.49403645981,1.58595894925,1.58951676866,0.929150814783,1.39178640156,0.915853992169,0.882065678713,1.45165785754,0.961866389926,0.929150814783,0.974747681223,0.948869049397,0.955382356356,0.888886944569,0.868325622087,1.56080547202,0.826302407191,1.52409369366,1.49023488965,1.57881688,1.59660619345,1.48260156475,1.68573208392,1.70881569703,1.6486947046,1.6588904717,1.69567032098,1.6588904717,1.51289548706,1.58595894925,1.64185727454,1.58239233423,1.41603394781
64.0,0.847467017189,1.60013788442,1.49403645981,1.51289548706,1.60717543516,1.63842636914,0.929150814783,1.4120208853,0.902433476407,0.895676110232,1.47876970315,0.974747681223,0.94232620353,0.955382356356,0.935753549607,0.955382356356,0.875212007672,0.868325622087,1.58595894925,0.826302407191,1.53151116523,1.51289548706,1.58595894925,1.62114837771,1.47492763686,1.71859671783,1.7250807514,1.66564783788,1.67572491057,1.71859671783,1.6824040662,1.51289548706,1.60013788442,1.67237370107,1.60717543516,1.42402673856
65.5,0.833391831977,1.64185727454,1.53889069559,1.50160967951,1.62808442492,1.63842636914,0.92251772245,1.45556231199,0.909159339595,0.895676110232,1.52409369366,0.968321412063,0.948869049397,0.948869049397,0.92251772245,0.955382356356,0.875212007672,0.861406208147,1.62114837771,0.826302407191,1.56080547202,1.5644257877,1.61068137866,1.64528004018,1.52037060762,1.73475248622,1.74754809152,1.68905244221,1.69236517625,1.74754809152,1.705540565,1.55717604862,1.63153998356,1.69896791108,1.62808442492,1.4120208853
67.0,0.833391831977,1.6588904717,1.52780719646,1.54623267093,1.64185727454,1.6622731111,0.92251772245,1.48260156475,0.902433476407,0.902433476407,1.53889069559,0.974747681223,0.948869049397,0.94232620353,0.915853992169,0.948869049397,0.868325622087,0.861406208147,1.6588904717,0.826302407191,1.54256635374,1.59306583574,1.60013788442,1.65210130604,1.57523254266,1.75707086564,1.77904923474,1.70881569703,1.71534374003,1.77592989289,1.71534374003,1.58595894925,1.6554998825,1.73153577353,1.6588904717,1.42003587836
68.5,0.847467017189,1.66564783788,1.54256635374,1.54988969454,1.65210130604,1.68905244221,0.92251772245,1.55717604862,0.902433476407,0.902433476407,1.60717543516,0.948869049397,0.929150814783,0.935753549607,0.902433476407,0.948869049397,0.868325622087,0.861406208147,1.69567032098,0.826302407191,1.52037060762,1.56803704125,1.63498728518,1.66901468898,1.60013788442,1.80987722482,1.83407393525,1.74435981389,1.74116447473,1.80987722482,1.7250807514,1.57163927793,1.70881569703,1.82504765946,1.70225798101,1.39178640156
70.0,0.826302407191,1.66901468898,1.58951676866,1.57163927793,1.66564783788,1.70225798101,0.92251772245,1.56080547202,0.902433476407,0.909159339595,1.61766780898,0.915853992169,0.902433476407,0.92251772245,0.895676110232,0.935753549607,0.868325622087,0.861406208147,1.73475248622,0.826302407191,1.54256635374,1.6486947046,1.6824040662,1.69236517625,1.59660619345,1.7821618466,1.80069779804,1.74116447473,1.72831187266,1.84006023031,1.7821618466,1.58951676866,1.66901468898,1.76967090242,1.68905244221,1.38770522475
71.5,0.840446589511,1.69236517625,1.62114837771,1.62114837771,1.6824040662,1.74435981389,0.909159339595,1.58239233423,0.888886944569,0.909159339595,1.63153998356,0.935753549607,0.909159339595,0.92251772245,0.902433476407,0.935753549607,0.847467017189,0.854453447505,1.78526775747,0.812018181185,1.53151116523,1.6588904717,1.6486947046,1.69896791108,1.62808442492,1.83407393525,1.85491818904,1.79454557106,1.79454557106,1.89859544128,1.85195881356,1.64528004018,1.76023120653,1.85491818904,1.75707086564,1.42402673856
